[-0.25324913  0.72694658  0.76888989 -0.73825615 -0.2781475   0.18547203
 -0.88476444  0.53160345 -0.38538672  0.02692922  0.90298548 -0.51626978
 -0.0149872   0.41943223  0.115902    1.29357701 -1.0603106   0.31546555
  0.27933282 -0.44821954  0.78032464 -0.27430584  0.38906119 -2.53984529
  1.94013228  1.08465708  1.74006788 -0.50135199]